CF:1.0.0.0-1.0.0.255
CF:1.1.1.0-1.1.1.255
CF:5.101.36.0-5.101.36.255
CF:5.101.39.0-5.101.39.255
CF:5.226.179.0-5.226.179.255
CF:5.252.118.0-5.252.118.255
CF:8.6.112.0-8.6.112.255
CF:8.6.144.0-8.6.144.255
CF:8.6.145.0-8.6.145.255
CF:8.6.146.0-8.6.146.255
CF:8.9.230.0-8.9.230.255
CF:8.9.231.0-8.9.231.255
CF:8.10.148.0-8.10.148.255
CF:8.14.199.0-8.14.199.255
CF:8.14.201.0-8.14.201.255
CF:8.14.202.0-8.14.202.255
CF:8.14.203.0-8.14.203.255
CF:8.14.204.0-8.14.204.255
CF:8.17.205.0-8.17.205.255
CF:8.17.206.0-8.17.206.255
CF:8.17.207.0-8.17.207.255
CF:8.18.50.0-8.18.50.255
CF:8.18.113.0-8.18.113.255
CF:8.18.194.0-8.18.194.255
CF:8.18.195.0-8.18.195.255
CF:8.18.196.0-8.18.196.255
CF:8.20.100.0-8.20.100.255
CF:8.20.101.0-8.20.101.255
CF:8.20.103.0-8.20.103.255
CF:8.20.122.0-8.20.122.255
CF:8.20.123.0-8.20.123.255
CF:8.20.124.0-8.20.124.255
CF:8.20.125.0-8.20.125.255
CF:8.20.126.0-8.20.126.255
CF:8.20.127.0-8.20.127.255
CF:8.20.253.0-8.20.253.255
CF:8.21.8.0-8.21.8.255
CF:8.21.9.0-8.21.9.255
CF:8.21.10.0-8.21.10.255
CF:8.21.11.0-8.21.11.255
CF:8.21.13.0-8.21.13.255
CF:8.21.110.0-8.21.110.255
CF:8.21.111.0-8.21.111.255
CF:8.21.238.0-8.21.238.255
CF:8.21.239.0-8.21.239.255
CF:8.23.139.0-8.23.139.255
CF:8.23.240.0-8.23.240.255
CF:8.24.87.0-8.24.87.255
CF:8.24.242.0-8.24.242.255
CF:8.24.243.0-8.24.243.255
CF:8.24.244.0-8.24.244.255
CF:8.25.96.0-8.25.96.255
CF:8.25.97.0-8.25.97.255
CF:8.25.249.0-8.25.249.255
CF:8.26.176.0-8.26.176.255
CF:8.26.180.0-8.26.180.255
CF:8.26.182.0-8.26.182.255
CF:8.27.64.0-8.27.64.255
CF:8.27.66.0-8.27.66.255
CF:8.27.67.0-8.27.67.255
CF:8.27.68.0-8.27.68.255
CF:8.27.69.0-8.27.69.255
CF:8.27.70.0-8.27.70.255
CF:8.27.79.0-8.27.79.255
CF:8.28.20.0-8.28.20.255
CF:8.28.82.0-8.28.82.255
CF:8.28.126.0-8.28.126.255
CF:8.28.127.0-8.28.127.255
CF:8.28.213.0-8.28.213.255
CF:8.29.105.0-8.29.105.255
CF:8.29.109.0-8.29.109.255
CF:8.29.228.0-8.29.228.255
CF:8.29.230.0-8.29.230.255
CF:8.29.231.0-8.29.231.255
CF:8.30.234.0-8.30.234.255
CF:8.31.2.0-8.31.2.255
CF:8.31.160.0-8.31.160.255
CF:8.31.161.0-8.31.161.255
CF:8.31.163.0-8.31.163.255
CF:8.34.69.0-8.34.69.255
CF:8.34.70.0-8.34.70.255
CF:8.35.57.0-8.35.57.255
CF:8.35.58.0-8.35.58.255
CF:8.35.59.0-8.35.59.255
CF:8.35.149.0-8.35.149.255
CF:8.35.211.0-8.35.211.255
CF:8.36.216.0-8.36.216.255
CF:8.36.217.0-8.36.217.255
CF:8.36.218.0-8.36.218.255
CF:8.36.220.0-8.36.220.255
CF:8.37.41.0-8.37.41.255
CF:8.37.43.0-8.37.43.255
CF:8.38.147.0-8.38.147.255
CF:8.38.148.0-8.38.148.255
CF:8.38.149.0-8.38.149.255
CF:8.38.172.0-8.38.172.255
CF:8.39.6.0-8.39.6.255
CF:8.39.18.0-8.39.18.255
CF:8.39.125.0-8.39.125.255
CF:8.39.126.0-8.39.126.255
CF:8.39.127.0-8.39.127.255
CF:8.39.201.0-8.39.201.255
CF:8.39.202.0-8.39.202.255
CF:8.39.203.0-8.39.203.255
CF:8.39.204.0-8.39.204.255
CF:8.39.205.0-8.39.205.255
CF:8.39.206.0-8.39.206.255
CF:8.39.207.0-8.39.207.255
CF:8.39.212.0-8.39.212.255
CF:8.39.213.0-8.39.213.255
CF:8.39.214.0-8.39.214.255
CF:8.39.215.0-8.39.215.255
CF:8.40.26.0-8.40.26.255
CF:8.40.27.0-8.40.27.255
CF:8.40.28.0-8.40.28.255
CF:8.40.29.0-8.40.29.255
CF:8.40.30.0-8.40.30.255
CF:8.40.31.0-8.40.31.255
CF:8.40.107.0-8.40.107.255
CF:8.40.111.0-8.40.111.255
CF:8.40.140.0-8.40.140.255
CF:8.41.5.0-8.41.5.255
CF:8.41.6.0-8.41.6.255
CF:8.41.7.0-8.41.7.255
CF:8.41.36.0-8.41.36.255
CF:8.41.37.0-8.41.37.255
CF:8.41.39.0-8.41.39.255
CF:8.42.51.0-8.42.51.255
CF:8.42.52.0-8.42.52.255
CF:8.42.54.0-8.42.54.255
CF:8.42.55.0-8.42.55.255
CF:8.42.161.0-8.42.161.255
CF:8.42.164.0-8.42.164.255
CF:8.42.172.0-8.42.172.255
CF:8.42.245.0-8.42.245.255
CF:8.43.121.0-8.43.121.255
CF:8.43.122.0-8.43.122.255
CF:8.43.123.0-8.43.123.255
CF:8.43.224.0-8.43.224.255
CF:8.43.225.0-8.43.225.255
CF:8.43.226.0-8.43.226.255
CF:8.44.0.0-8.44.0.255
CF:8.44.1.0-8.44.1.255
CF:8.44.2.0-8.44.2.255
CF:8.44.3.0-8.44.3.255
CF:8.44.6.0-8.44.6.255
CF:8.44.58.0-8.44.58.255
CF:8.44.59.0-8.44.59.255
CF:8.44.60.0-8.44.60.255
CF:8.44.61.0-8.44.61.255
CF:8.44.62.0-8.44.62.255
CF:8.44.63.0-8.44.63.255
CF:8.45.41.0-8.45.41.255
CF:8.45.42.0-8.45.42.255
CF:8.45.43.0-8.45.43.255
CF:8.45.44.0-8.45.44.255
CF:8.45.45.0-8.45.45.255
CF:8.45.46.0-8.45.46.255
CF:8.45.47.0-8.45.47.255
CF:8.45.97.0-8.45.97.255
CF:8.45.100.0-8.45.100.255
CF:8.45.101.0-8.45.101.255
CF:8.45.102.0-8.45.102.255
CF:8.45.108.0-8.45.108.255
CF:8.45.111.0-8.45.111.255
CF:8.45.144.0-8.45.144.255
CF:8.45.145.0-8.45.145.255
CF:8.45.146.0-8.45.146.255
CF:8.45.147.0-8.45.147.255
CF:8.45.151.0-8.45.151.255
CF:8.46.113.0-8.46.113.255
CF:8.46.114.0-8.46.114.255
CF:8.46.115.0-8.46.115.255
CF:8.46.116.0-8.46.116.255
CF:8.46.117.0-8.46.117.255
CF:8.46.118.0-8.46.118.255
CF:8.46.119.0-8.46.119.255
CF:8.47.9.0-8.47.9.255
CF:8.47.12.0-8.47.12.255
CF:8.47.13.0-8.47.13.255
CF:8.47.14.0-8.47.14.255
CF:8.47.15.0-8.47.15.255
CF:8.47.69.0-8.47.69.255
CF:8.47.71.0-8.47.71.255
CF:8.48.130.0-8.48.130.255
CF:8.48.131.0-8.48.131.255
CF:8.48.132.0-8.48.132.255
CF:8.48.133.0-8.48.133.255
CF:8.48.134.0-8.48.134.255
CF:12.221.133.0-12.221.133.255
CF:23.227.37.0-23.227.37.255
CF:23.227.38.0-23.227.39.255
CF:31.43.179.0-31.43.179.255
CF:45.8.104.0-45.8.107.255
CF:45.8.211.0-45.8.211.255
CF:45.12.30.0-45.12.31.255
CF:45.14.173.0-45.14.173.255
CF:45.14.174.0-45.14.174.255
CF:45.85.118.0-45.85.119.255
CF:45.131.4.0-45.131.7.255
CF:45.131.208.0-45.131.211.255
CF:45.133.246.0-45.133.246.255
CF:45.133.247.0-45.133.247.255
CF:45.142.120.0-45.142.120.255
CF:45.145.28.0-45.145.28.255
CF:45.145.29.0-45.145.29.255
CF:64.68.192.0-64.68.192.255
CF:64.179.227.0-64.179.227.255
CF:64.179.228.0-64.179.228.255
CF:65.110.63.0-65.110.63.255
CF:66.235.200.0-66.235.200.255
CF:68.67.65.0-68.67.65.255
CF:72.52.113.0-72.52.113.255
CF:80.94.83.0-80.94.83.255
CF:89.47.56.0-89.47.57.255
CF:89.207.18.0-89.207.18.255
CF:91.132.150.0-91.132.151.255
CF:91.192.106.0-91.192.107.255
CF:91.193.58.0-91.193.59.255
CF:91.226.97.0-91.226.97.255
CF:91.234.214.0-91.234.214.255
CF:91.243.35.0-91.243.35.255
CF:93.114.64.0-93.114.65.255
CF:103.21.244.0-103.21.247.255
CF:103.21.246.0-103.21.246.255
CF:103.21.247.0-103.21.247.255
CF:103.22.200.0-103.22.203.255
CF:103.22.203.0-103.22.203.255
CF:103.31.4.0-103.31.7.255
CF:103.81.228.0-103.81.228.255
CF:103.156.22.0-103.156.23.255
CF:103.160.204.0-103.160.204.255
CF:103.169.142.0-103.169.142.255
CF:103.172.110.0-103.172.111.255
CF:103.204.13.0-103.204.13.255
CF:103.244.116.0-103.244.119.255
CF:104.16.0.0-104.31.255.255
CF:104.16.16.0-104.16.31.255
CF:104.16.32.0-104.16.47.255
CF:104.16.48.0-104.16.63.255
CF:104.16.64.0-104.16.79.255
CF:104.16.80.0-104.16.95.255
CF:104.16.96.0-104.16.111.255
CF:104.16.112.0-104.16.127.255
CF:104.16.128.0-104.16.143.255
CF:104.16.144.0-104.16.159.255
CF:104.16.160.0-104.16.175.255
CF:104.16.176.0-104.16.191.255
CF:104.16.192.0-104.16.207.255
CF:104.16.208.0-104.16.223.255
CF:104.16.224.0-104.16.239.255
CF:104.16.240.0-104.16.255.255
CF:104.17.0.0-104.17.15.255
CF:104.17.16.0-104.17.31.255
CF:104.17.32.0-104.17.47.255
CF:104.17.48.0-104.17.63.255
CF:104.17.64.0-104.17.79.255
CF:104.17.80.0-104.17.95.255
CF:104.17.96.0-104.17.111.255
CF:104.17.112.0-104.17.127.255
CF:104.17.128.0-104.17.143.255
CF:104.17.144.0-104.17.159.255
CF:104.17.160.0-104.17.175.255
CF:104.17.176.0-104.17.191.255
CF:104.17.192.0-104.17.207.255
CF:104.17.208.0-104.17.223.255
CF:104.17.224.0-104.17.239.255
CF:104.17.240.0-104.17.255.255
CF:104.18.0.0-104.18.15.255
CF:104.18.16.0-104.18.31.255
CF:104.18.32.0-104.18.63.255
CF:104.18.48.0-104.18.63.255
CF:104.18.64.0-104.18.79.255
CF:104.18.80.0-104.18.95.255
CF:104.18.96.0-104.18.111.255
CF:104.18.112.0-104.18.127.255
CF:104.18.128.0-104.18.143.255
CF:104.18.144.0-104.18.159.255
CF:104.18.160.0-104.18.175.255
CF:104.18.176.0-104.18.191.255
CF:104.18.192.0-104.18.207.255
CF:104.18.208.0-104.18.223.255
CF:104.18.224.0-104.18.239.255
CF:104.18.240.0-104.18.255.255
CF:104.19.0.0-104.19.15.255
CF:104.19.16.0-104.19.31.255
CF:104.19.32.0-104.19.47.255
CF:104.19.48.0-104.19.63.255
CF:104.19.64.0-104.19.79.255
CF:104.19.80.0-104.19.95.255
CF:104.19.96.0-104.19.111.255
CF:104.19.112.0-104.19.127.255
CF:104.19.128.0-104.19.143.255
CF:104.19.144.0-104.19.159.255
CF:104.19.160.0-104.19.175.255
CF:104.19.176.0-104.19.191.255
CF:104.19.192.0-104.19.207.255
CF:104.19.208.0-104.19.223.255
CF:104.19.224.0-104.19.239.255
CF:104.19.240.0-104.19.255.255
CF:104.20.0.0-104.20.15.255
CF:104.20.16.0-104.20.31.255
CF:104.20.32.0-104.20.47.255
CF:104.20.48.0-104.20.63.255
CF:104.20.64.0-104.20.79.255
CF:104.20.80.0-104.20.95.255
CF:104.20.96.0-104.20.111.255
CF:104.20.112.0-104.20.127.255
CF:104.20.128.0-104.20.143.255
CF:104.20.144.0-104.20.159.255
CF:104.20.160.0-104.20.175.255
CF:104.20.176.0-104.20.191.255
CF:104.20.192.0-104.20.207.255
CF:104.20.208.0-104.20.223.255
CF:104.20.224.0-104.20.239.255
CF:104.20.240.0-104.20.255.255
CF:104.21.0.0-104.21.31.255
CF:104.21.16.0-104.21.31.255
CF:104.21.32.0-104.21.63.255
CF:104.21.48.0-104.21.63.255
CF:104.21.64.0-104.21.95.255
CF:104.21.80.0-104.21.95.255
CF:104.21.96.0-104.21.127.255
CF:104.21.112.0-104.21.127.255
CF:104.21.192.0-104.21.223.255
CF:104.21.208.0-104.21.223.255
CF:104.21.224.0-104.21.239.255
CF:104.22.0.0-104.22.15.255
CF:104.22.16.0-104.22.31.255
CF:104.22.32.0-104.22.47.255
CF:104.22.48.0-104.22.63.255
CF:104.22.64.0-104.22.79.255
CF:104.23.96.0-104.23.111.255
CF:104.23.112.0-104.23.127.255
CF:104.23.128.0-104.23.143.255
CF:104.24.0.0-104.27.255.255
CF:104.24.16.0-104.24.31.255
CF:104.24.32.0-104.24.47.255
CF:104.24.48.0-104.24.63.255
CF:104.24.64.0-104.24.79.255
CF:104.24.80.0-104.24.95.255
CF:104.24.128.0-104.24.143.255
CF:104.24.144.0-104.24.159.255
CF:104.24.160.0-104.24.175.255
CF:104.24.176.0-104.24.191.255
CF:104.24.192.0-104.24.207.255
CF:104.24.208.0-104.24.223.255
CF:104.24.224.0-104.24.239.255
CF:104.24.240.0-104.24.255.255
CF:104.25.0.0-104.25.15.255
CF:104.25.16.0-104.25.31.255
CF:104.25.32.0-104.25.47.255
CF:104.25.48.0-104.25.63.255
CF:104.25.64.0-104.25.79.255
CF:104.25.80.0-104.25.95.255
CF:104.25.96.0-104.25.111.255
CF:104.25.112.0-104.25.127.255
CF:104.25.128.0-104.25.143.255
CF:104.25.144.0-104.25.159.255
CF:104.25.160.0-104.25.175.255
CF:104.25.176.0-104.25.191.255
CF:104.25.192.0-104.25.207.255
CF:104.25.208.0-104.25.223.255
CF:104.25.224.0-104.25.239.255
CF:104.25.240.0-104.25.255.255
CF:104.26.0.0-104.26.15.255
CF:104.27.0.0-104.27.15.255
CF:104.27.16.0-104.27.31.255
CF:104.27.32.0-104.27.47.255
CF:104.27.48.0-104.27.63.255
CF:104.27.64.0-104.27.79.255
CF:104.27.80.0-104.27.95.255
CF:104.27.96.0-104.27.111.255
CF:104.27.112.0-104.27.127.255
CF:104.27.192.0-104.27.207.255
CF:104.28.0.0-104.28.0.255
CF:104.28.4.0-104.28.4.255
CF:104.28.9.0-104.28.9.255
CF:104.28.10.0-104.28.10.255
CF:104.28.11.0-104.28.11.255
CF:104.28.12.0-104.28.12.255
CF:104.28.13.0-104.28.13.255
CF:104.28.14.0-104.28.14.255
CF:104.28.15.0-104.28.15.255
CF:104.28.16.0-104.28.16.255
CF:104.28.17.0-104.28.17.255
CF:104.28.18.0-104.28.18.255
CF:104.28.19.0-104.28.19.255
CF:104.28.21.0-104.28.21.255
CF:104.28.22.0-104.28.22.255
CF:104.28.23.0-104.28.23.255
CF:104.28.24.0-104.28.24.255
CF:104.28.26.0-104.28.26.255
CF:104.28.27.0-104.28.27.255
CF:104.28.28.0-104.28.28.255
CF:104.28.29.0-104.28.29.255
CF:104.28.30.0-104.28.30.255
CF:104.28.31.0-104.28.31.255
CF:104.28.32.0-104.28.32.255
CF:104.28.33.0-104.28.33.255
CF:104.28.34.0-104.28.34.255
CF:104.28.35.0-104.28.35.255
CF:104.28.36.0-104.28.36.255
CF:104.28.37.0-104.28.37.255
CF:104.28.38.0-104.28.38.255
CF:104.28.39.0-104.28.39.255
CF:104.28.40.0-104.28.40.255
CF:104.28.41.0-104.28.41.255
CF:104.28.42.0-104.28.42.255
CF:104.28.43.0-104.28.43.255
CF:104.28.44.0-104.28.44.255
CF:104.28.45.0-104.28.45.255
CF:104.28.46.0-104.28.46.255
CF:104.28.47.0-104.28.47.255
CF:104.28.48.0-104.28.48.255
CF:104.28.49.0-104.28.49.255
CF:104.28.50.0-104.28.50.255
CF:104.28.51.0-104.28.51.255
CF:104.28.52.0-104.28.52.255
CF:104.28.53.0-104.28.53.255
CF:104.28.54.0-104.28.54.255
CF:104.28.55.0-104.28.55.255
CF:104.28.56.0-104.28.56.255
CF:104.28.57.0-104.28.57.255
CF:104.28.58.0-104.28.58.255
CF:104.28.59.0-104.28.59.255
CF:104.28.60.0-104.28.60.255
CF:104.28.61.0-104.28.61.255
CF:104.28.62.0-104.28.62.255
CF:104.28.63.0-104.28.63.255
CF:104.28.64.0-104.28.64.255
CF:104.28.65.0-104.28.65.255
CF:104.28.66.0-104.28.66.255
CF:104.28.67.0-104.28.67.255
CF:104.28.68.0-104.28.68.255
CF:104.28.69.0-104.28.69.255
CF:104.28.70.0-104.28.70.255
CF:104.28.71.0-104.28.71.255
CF:104.28.72.0-104.28.72.255
CF:104.28.73.0-104.28.73.255
CF:104.28.74.0-104.28.74.255
CF:104.28.75.0-104.28.75.255
CF:104.28.76.0-104.28.76.255
CF:104.28.77.0-104.28.77.255
CF:104.28.78.0-104.28.78.255
CF:104.28.79.0-104.28.79.255
CF:104.28.80.0-104.28.80.255
CF:104.28.81.0-104.28.81.255
CF:104.28.82.0-104.28.82.255
CF:104.28.83.0-104.28.83.255
CF:104.28.84.0-104.28.84.255
CF:104.28.85.0-104.28.85.255
CF:104.28.86.0-104.28.86.255
CF:104.28.87.0-104.28.87.255
CF:104.28.88.0-104.28.88.255
CF:104.28.89.0-104.28.89.255
CF:104.28.90.0-104.28.90.255
CF:104.28.91.0-104.28.91.255
CF:104.28.92.0-104.28.92.255
CF:104.28.93.0-104.28.93.255
CF:104.28.94.0-104.28.94.255
CF:104.28.95.0-104.28.95.255
CF:104.28.96.0-104.28.96.255
CF:104.28.97.0-104.28.97.255
CF:104.28.98.0-104.28.98.255
CF:104.28.99.0-104.28.99.255
CF:104.28.100.0-104.28.100.255
CF:104.28.101.0-104.28.101.255
CF:104.28.102.0-104.28.102.255
CF:104.28.103.0-104.28.103.255
CF:104.28.104.0-104.28.104.255
CF:104.28.105.0-104.28.105.255
CF:104.28.106.0-104.28.106.255
CF:104.28.107.0-104.28.107.255
CF:104.28.108.0-104.28.108.255
CF:104.28.109.0-104.28.109.255
CF:104.28.110.0-104.28.110.255
CF:104.28.111.0-104.28.111.255
CF:104.28.112.0-104.28.112.255
CF:104.28.113.0-104.28.113.255
CF:104.28.114.0-104.28.114.255
CF:104.28.115.0-104.28.115.255
CF:104.28.116.0-104.28.116.255
CF:104.28.117.0-104.28.117.255
CF:104.28.118.0-104.28.118.255
CF:104.28.119.0-104.28.119.255
CF:104.28.120.0-104.28.120.255
CF:104.28.121.0-104.28.121.255
CF:104.28.122.0-104.28.122.255
CF:104.28.123.0-104.28.123.255
CF:104.28.124.0-104.28.124.255
CF:104.28.125.0-104.28.125.255
CF:104.28.126.0-104.28.126.255
CF:104.28.127.0-104.28.127.255
CF:104.28.128.0-104.28.128.255
CF:104.28.129.0-104.28.129.255
CF:104.28.130.0-104.28.130.255
CF:104.28.131.0-104.28.131.255
CF:104.28.132.0-104.28.132.255
CF:104.28.133.0-104.28.133.255
CF:104.28.134.0-104.28.134.255
CF:104.28.135.0-104.28.135.255
CF:104.30.0.0-104.30.0.255
CF:104.30.1.0-104.30.1.255
CF:104.30.2.0-104.30.2.255
CF:104.30.3.0-104.30.3.255
CF:104.30.4.0-104.30.4.255
CF:104.30.5.0-104.30.5.255
CF:104.31.16.0-104.31.17.255
CF:104.218.62.0-104.218.63.255
CF:104.254.140.0-104.254.140.255
CF:108.162.192.0-108.162.255.255
CF:108.162.193.0-108.162.193.255
CF:108.162.194.0-108.162.194.255
CF:108.162.195.0-108.162.195.255
CF:108.162.196.0-108.162.196.255
CF:108.162.208.0-108.162.208.255
CF:108.162.210.0-108.162.210.255
CF:108.162.211.0-108.162.211.255
CF:108.162.212.0-108.162.212.255
CF:108.162.213.0-108.162.213.255
CF:108.162.214.0-108.162.214.255
CF:108.162.215.0-108.162.215.255
CF:108.162.216.0-108.162.216.255
CF:108.162.217.0-108.162.217.255
CF:108.162.218.0-108.162.218.255
CF:108.162.219.0-108.162.219.255
CF:108.162.220.0-108.162.220.255
CF:108.162.221.0-108.162.221.255
CF:108.162.223.0-108.162.223.255
CF:108.162.228.0-108.162.228.255
CF:108.162.229.0-108.162.229.255
CF:108.162.235.0-108.162.235.255
CF:108.162.236.0-108.162.236.255
CF:108.162.237.0-108.162.237.255
CF:108.162.238.0-108.162.238.255
CF:108.162.239.0-108.162.239.255
CF:108.162.240.0-108.162.240.255
CF:108.162.241.0-108.162.241.255
CF:108.162.242.0-108.162.242.255
CF:108.162.243.0-108.162.243.255
CF:108.162.244.0-108.162.244.255
CF:108.162.245.0-108.162.245.255
CF:108.162.246.0-108.162.246.255
CF:108.162.247.0-108.162.247.255
CF:108.162.248.0-108.162.248.255
CF:108.162.249.0-108.162.249.255
CF:108.162.250.0-108.162.250.255
CF:108.162.252.0-108.162.252.255
CF:108.162.253.0-108.162.253.255
CF:108.162.254.0-108.162.254.255
CF:108.165.216.0-108.165.216.255
CF:131.0.72.0-131.0.75.255
CF:141.101.64.0-141.101.127.255
CF:141.101.65.0-141.101.65.255
CF:141.101.66.0-141.101.66.255
CF:141.101.67.0-141.101.67.255
CF:141.101.68.0-141.101.68.255
CF:141.101.69.0-141.101.69.255
CF:141.101.70.0-141.101.70.255
CF:141.101.71.0-141.101.71.255
CF:141.101.72.0-141.101.72.255
CF:141.101.73.0-141.101.73.255
CF:141.101.74.0-141.101.74.255
CF:141.101.75.0-141.101.75.255
CF:141.101.76.0-141.101.77.255
CF:141.101.82.0-141.101.82.255
CF:141.101.83.0-141.101.83.255
CF:141.101.84.0-141.101.84.255
CF:141.101.85.0-141.101.85.255
CF:141.101.88.0-141.101.88.255
CF:141.101.94.0-141.101.94.255
CF:141.101.95.0-141.101.95.255
CF:141.101.96.0-141.101.96.255
CF:141.101.97.0-141.101.97.255
CF:141.101.98.0-141.101.98.255
CF:141.101.99.0-141.101.99.255
CF:141.101.100.0-141.101.103.255
CF:141.101.104.0-141.101.104.255
CF:141.101.105.0-141.101.105.255
CF:141.101.106.0-141.101.106.255
CF:141.101.107.0-141.101.107.255
CF:141.101.108.0-141.101.108.255
CF:141.101.109.0-141.101.109.255
CF:141.101.110.0-141.101.110.255
CF:141.101.112.0-141.101.127.255
CF:141.101.114.0-141.101.115.255
CF:141.101.120.0-141.101.123.255
CF:141.193.213.0-141.193.213.255
CF:146.19.22.0-146.19.22.255
CF:147.78.140.0-147.78.140.255
CF:147.185.161.0-147.185.161.255
CF:154.83.2.0-154.83.2.255
CF:154.83.22.0-154.83.23.255
CF:154.83.30.0-154.83.31.255
CF:154.84.14.0-154.84.15.255
CF:154.84.16.0-154.84.23.255
CF:154.84.24.0-154.84.27.255
CF:154.85.8.0-154.85.11.255
CF:154.94.8.0-154.94.9.255
CF:154.219.2.0-154.219.3.255
CF:156.237.4.0-156.237.5.255
CF:156.238.14.0-156.238.15.255
CF:156.238.18.0-156.238.19.255
CF:156.239.152.0-156.239.155.255
CF:162.158.0.0-162.159.255.255
CF:162.158.4.0-162.158.4.255
CF:162.158.5.0-162.158.5.255
CF:162.158.8.0-162.158.8.255
CF:162.158.9.0-162.158.9.255
CF:162.158.10.0-162.158.10.255
CF:162.158.11.0-162.158.11.255
CF:162.158.12.0-162.158.15.255
CF:162.158.16.0-162.158.19.255
CF:162.158.20.0-162.158.23.255
CF:162.158.24.0-162.158.25.255
CF:162.158.25.0-162.158.25.255
CF:162.158.26.0-162.158.26.255
CF:162.158.27.0-162.158.27.255
CF:162.158.28.0-162.158.28.255
CF:162.158.29.0-162.158.29.255
CF:162.158.30.0-162.158.30.255
CF:162.158.31.0-162.158.31.255
CF:162.158.32.0-162.158.35.255
CF:162.158.36.0-162.158.36.255
CF:162.158.37.0-162.158.37.255
CF:162.158.38.0-162.158.38.255
CF:162.158.40.0-162.158.40.255
CF:162.158.41.0-162.158.41.255
CF:162.158.42.0-162.158.42.255
CF:162.158.43.0-162.158.43.255
CF:162.158.44.0-162.158.47.255
CF:162.158.48.0-162.158.48.255
CF:162.158.50.0-162.158.50.255
CF:162.158.51.0-162.158.51.255
CF:162.158.52.0-162.158.55.255
CF:162.158.56.0-162.158.56.255
CF:162.158.57.0-162.158.57.255
CF:162.158.58.0-162.158.58.255
CF:162.158.59.0-162.158.59.255
CF:162.158.60.0-162.158.63.255
CF:162.158.64.0-162.158.71.255
CF:162.158.72.0-162.158.75.255
CF:162.158.76.0-162.158.79.255
CF:162.158.80.0-162.158.80.255
CF:162.158.81.0-162.158.81.255
CF:162.158.82.0-162.158.83.255
CF:162.158.84.0-162.158.87.255
CF:162.158.88.0-162.158.95.255
CF:162.158.96.0-162.158.96.255
CF:162.158.97.0-162.158.97.255
CF:162.158.98.0-162.158.98.255
CF:162.158.99.0-162.158.99.255
CF:162.158.100.0-162.158.100.255
CF:162.158.101.0-162.158.101.255
CF:162.158.102.0-162.158.102.255
CF:162.158.103.0-162.158.103.255
CF:162.158.104.0-162.158.104.255
CF:162.158.105.0-162.158.105.255
CF:162.158.106.0-162.158.106.255
CF:162.158.107.0-162.158.107.255
CF:162.158.108.0-162.158.111.255
CF:162.158.112.0-162.158.112.255
CF:162.158.113.0-162.158.113.255
CF:162.158.114.0-162.158.114.255
CF:162.158.116.0-162.158.119.255
CF:162.158.120.0-162.158.120.255
CF:162.158.121.0-162.158.121.255
CF:162.158.122.0-162.158.122.255
CF:162.158.123.0-162.158.123.255
CF:162.158.124.0-162.158.127.255
CF:162.158.128.0-162.158.131.255
CF:162.158.132.0-162.158.132.255
CF:162.158.133.0-162.158.133.255
CF:162.158.134.0-162.158.134.255
CF:162.158.135.0-162.158.135.255
CF:162.158.136.0-162.158.139.255
CF:162.158.140.0-162.158.140.255
CF:162.158.141.0-162.158.141.255
CF:162.158.142.0-162.158.142.255
CF:162.158.143.0-162.158.143.255
CF:162.158.144.0-162.158.144.255
CF:162.158.145.0-162.158.145.255
CF:162.158.146.0-162.158.146.255
CF:162.158.147.0-162.158.147.255
CF:162.158.148.0-162.158.148.255
CF:162.158.149.0-162.158.149.255
CF:162.158.150.0-162.158.150.255
CF:162.158.151.0-162.158.151.255
CF:162.158.152.0-162.158.155.255
CF:162.158.156.0-162.158.159.255
CF:162.158.160.0-162.158.175.255
CF:162.158.176.0-162.158.176.255
CF:162.158.177.0-162.158.177.255
CF:162.158.178.0-162.158.178.255
CF:162.158.179.0-162.158.179.255
CF:162.158.180.0-162.158.183.255
CF:162.158.184.0-162.158.184.255
CF:162.158.185.0-162.158.185.255
CF:162.158.186.0-162.158.186.255
CF:162.158.187.0-162.158.187.255
CF:162.158.188.0-162.158.188.255
CF:162.158.189.0-162.158.189.255
CF:162.158.190.0-162.158.190.255
CF:162.158.191.0-162.158.191.255
CF:162.158.192.0-162.158.192.255
CF:162.158.193.0-162.158.193.255
CF:162.158.194.0-162.158.194.255
CF:162.158.195.0-162.158.195.255
CF:162.158.196.0-162.158.196.255
CF:162.158.197.0-162.158.197.255
CF:162.158.198.0-162.158.198.255
CF:162.158.199.0-162.158.199.255
CF:162.158.200.0-162.158.203.255
CF:162.158.204.0-162.158.205.255
CF:162.158.206.0-162.158.206.255
CF:162.158.207.0-162.158.207.255
CF:162.158.208.0-162.158.211.255
CF:162.158.212.0-162.158.212.255
CF:162.158.214.0-162.158.214.255
CF:162.158.215.0-162.158.215.255
CF:162.158.216.0-162.158.217.255
CF:162.158.218.0-162.158.219.255
CF:162.158.220.0-162.158.223.255
CF:162.158.224.0-162.158.224.255
CF:162.158.225.0-162.158.225.255
CF:162.158.226.0-162.158.227.255
CF:162.158.228.0-162.158.231.255
CF:162.158.232.0-162.158.233.255
CF:162.158.234.0-162.158.235.255
CF:162.158.236.0-162.158.239.255
CF:162.158.240.0-162.158.243.255
CF:162.158.244.0-162.158.247.255
CF:162.158.248.0-162.158.249.255
CF:162.158.250.0-162.158.251.255
CF:162.158.252.0-162.158.255.255
CF:162.159.0.0-162.159.15.255
CF:162.159.1.0-162.159.1.255
CF:162.159.2.0-162.159.2.255
CF:162.159.3.0-162.159.3.255
CF:162.159.4.0-162.159.4.255
CF:162.159.5.0-162.159.5.255
CF:162.159.6.0-162.159.6.255
CF:162.159.7.0-162.159.7.255
CF:162.159.8.0-162.159.8.255
CF:162.159.9.0-162.159.9.255
CF:162.159.10.0-162.159.10.255
CF:162.159.11.0-162.159.11.255
CF:162.159.12.0-162.159.12.255
CF:162.159.13.0-162.159.13.255
CF:162.159.14.0-162.159.14.255
CF:162.159.15.0-162.159.15.255
CF:162.159.16.0-162.159.31.255
CF:162.159.17.0-162.159.17.255
CF:162.159.18.0-162.159.18.255
CF:162.159.19.0-162.159.19.255
CF:162.159.20.0-162.159.20.255
CF:162.159.21.0-162.159.21.255
CF:162.159.22.0-162.159.22.255
CF:162.159.23.0-162.159.23.255
CF:162.159.24.0-162.159.24.255
CF:162.159.25.0-162.159.25.255
CF:162.159.26.0-162.159.26.255
CF:162.159.27.0-162.159.27.255
CF:162.159.28.0-162.159.28.255
CF:162.159.29.0-162.159.29.255
CF:162.159.30.0-162.159.30.255
CF:162.159.31.0-162.159.31.255
CF:162.159.32.0-162.159.47.255
CF:162.159.34.0-162.159.35.255
CF:162.159.36.0-162.159.36.255
CF:162.159.40.0-162.159.41.255
CF:162.159.42.0-162.159.43.255
CF:162.159.46.0-162.159.46.255
CF:162.159.48.0-162.159.63.255
CF:162.159.58.0-162.159.58.255
CF:162.159.64.0-162.159.79.255
CF:162.159.128.0-162.159.255.255
CF:162.159.132.0-162.159.132.255
CF:162.159.160.0-162.159.160.255
CF:162.159.192.0-162.159.195.255
CF:162.159.193.0-162.159.193.255
CF:162.159.194.0-162.159.194.255
CF:162.159.195.0-162.159.195.255
CF:162.159.196.0-162.159.196.255
CF:162.159.200.0-162.159.200.255
CF:162.159.201.0-162.159.201.255
CF:162.159.204.0-162.159.204.255
CF:162.159.208.0-162.159.211.255
CF:162.159.212.0-162.159.215.255
CF:162.159.216.0-162.159.223.255
CF:162.159.224.0-162.159.239.255
CF:162.159.240.0-162.159.255.255
CF:162.247.243.0-162.247.243.255
CF:162.251.82.0-162.251.82.255
CF:168.100.6.0-168.100.6.255
CF:172.64.0.0-172.71.255.255
CF:172.64.32.0-172.64.47.255
CF:172.64.33.0-172.64.33.255
CF:172.64.34.0-172.64.34.255
CF:172.64.35.0-172.64.35.255
CF:172.64.36.0-172.64.37.255
CF:172.64.38.0-172.64.38.255
CF:172.64.48.0-172.64.63.255
CF:172.64.64.0-172.64.79.255
CF:172.64.68.0-172.64.68.255
CF:172.64.69.0-172.64.69.255
CF:172.64.80.0-172.64.95.255
CF:172.64.96.0-172.64.111.255
CF:172.64.128.0-172.64.143.255
CF:172.64.160.0-172.64.175.255
CF:172.64.192.0-172.64.207.255
CF:172.64.228.0-172.64.228.255
CF:172.64.240.0-172.64.255.255
CF:172.65.0.0-172.65.31.255
CF:172.65.16.0-172.65.31.255
CF:172.65.32.0-172.65.63.255
CF:172.65.48.0-172.65.63.255
CF:172.65.64.0-172.65.79.255
CF:172.65.80.0-172.65.95.255
CF:172.65.96.0-172.65.111.255
CF:172.65.112.0-172.65.127.255
CF:172.65.128.0-172.65.143.255
CF:172.65.144.0-172.65.159.255
CF:172.65.160.0-172.65.175.255
CF:172.65.176.0-172.65.191.255
CF:172.65.192.0-172.65.207.255
CF:172.65.208.0-172.65.223.255
CF:172.65.224.0-172.65.239.255
CF:172.65.240.0-172.65.255.255
CF:172.66.40.0-172.66.47.255
CF:172.67.0.0-172.67.15.255
CF:172.67.16.0-172.67.31.255
CF:172.67.32.0-172.67.47.255
CF:172.67.48.0-172.67.63.255
CF:172.67.64.0-172.67.79.255
CF:172.67.80.0-172.67.95.255
CF:172.67.96.0-172.67.111.255
CF:172.67.112.0-172.67.127.255
CF:172.67.128.0-172.67.143.255
CF:172.67.144.0-172.67.159.255
CF:172.67.160.0-172.67.175.255
CF:172.67.176.0-172.67.191.255
CF:172.67.192.0-172.67.207.255
CF:172.67.208.0-172.67.223.255
CF:172.67.224.0-172.67.239.255
CF:172.67.240.0-172.67.255.255
CF:172.68.0.0-172.68.3.255
CF:172.68.4.0-172.68.7.255
CF:172.68.8.0-172.68.11.255
CF:172.68.12.0-172.68.15.255
CF:172.68.16.0-172.68.23.255
CF:172.68.24.0-172.68.27.255
CF:172.68.28.0-172.68.28.255
CF:172.68.29.0-172.68.29.255
CF:172.68.30.0-172.68.30.255
CF:172.68.31.0-172.68.31.255
CF:172.68.32.0-172.68.35.255
CF:172.68.36.0-172.68.37.255
CF:172.68.38.0-172.68.38.255
CF:172.68.39.0-172.68.39.255
CF:172.68.40.0-172.68.43.255
CF:172.68.44.0-172.68.47.255
CF:172.68.48.0-172.68.51.255
CF:172.68.52.0-172.68.55.255
CF:172.68.56.0-172.68.56.255
CF:172.68.57.0-172.68.57.255
CF:172.68.58.0-172.68.58.255
CF:172.68.59.0-172.68.59.255
CF:172.68.60.0-172.68.63.255
CF:172.68.64.0-172.68.67.255
CF:172.68.68.0-172.68.71.255
CF:172.68.72.0-172.68.73.255
CF:172.68.74.0-172.68.74.255
CF:172.68.75.0-172.68.75.255
CF:172.68.76.0-172.68.77.255
CF:172.68.78.0-172.68.78.255
CF:172.68.79.0-172.68.79.255
CF:172.68.80.0-172.68.83.255
CF:172.68.84.0-172.68.87.255
CF:172.68.88.0-172.68.88.255
CF:172.68.89.0-172.68.89.255
CF:172.68.90.0-172.68.90.255
CF:172.68.91.0-172.68.91.255
CF:172.68.92.0-172.68.95.255
CF:172.68.96.0-172.68.96.255
CF:172.68.97.0-172.68.97.255
CF:172.68.98.0-172.68.98.255
CF:172.68.99.0-172.68.99.255
CF:172.68.100.0-172.68.103.255
CF:172.68.104.0-172.68.107.255
CF:172.68.108.0-172.68.111.255
CF:172.68.112.0-172.68.112.255
CF:172.68.113.0-172.68.113.255
CF:172.68.114.0-172.68.114.255
CF:172.68.116.0-172.68.116.255
CF:172.68.117.0-172.68.117.255
CF:172.68.118.0-172.68.118.255
CF:172.68.119.0-172.68.119.255
CF:172.68.120.0-172.68.121.255
CF:172.68.124.0-172.68.125.255
CF:172.68.126.0-172.68.126.255
CF:172.68.127.0-172.68.127.255
CF:172.68.128.0-172.68.128.255
CF:172.68.129.0-172.68.129.255
CF:172.68.130.0-172.68.130.255
CF:172.68.131.0-172.68.131.255
CF:172.68.132.0-172.68.135.255
CF:172.68.136.0-172.68.139.255
CF:172.68.140.0-172.68.143.255
CF:172.68.144.0-172.68.147.255
CF:172.68.148.0-172.68.151.255
CF:172.68.152.0-172.68.152.255
CF:172.68.153.0-172.68.153.255
CF:172.68.154.0-172.68.154.255
CF:172.68.155.0-172.68.155.255
CF:172.68.164.0-172.68.165.255
CF:172.68.166.0-172.68.167.255
CF:172.68.168.0-172.68.168.255
CF:172.68.169.0-172.68.169.255
CF:172.68.170.0-172.68.170.255
CF:172.68.171.0-172.68.171.255
CF:172.68.172.0-172.68.175.255
CF:172.68.176.0-172.68.176.255
CF:172.68.177.0-172.68.177.255
CF:172.68.179.0-172.68.179.255
CF:172.68.180.0-172.68.183.255
CF:172.68.184.0-172.68.187.255
CF:172.68.188.0-172.68.191.255
CF:172.68.196.0-172.68.199.255
CF:172.68.200.0-172.68.200.255
CF:172.68.201.0-172.68.201.255
CF:172.68.203.0-172.68.203.255
CF:172.68.204.0-172.68.205.255
CF:172.68.206.0-172.68.206.255
CF:172.68.207.0-172.68.207.255
CF:172.68.208.0-172.68.211.255
CF:172.68.212.0-172.68.215.255
CF:172.68.220.0-172.68.221.255
CF:172.68.222.0-172.68.222.255
CF:172.68.223.0-172.68.223.255
CF:172.68.224.0-172.68.227.255
CF:172.68.228.0-172.68.229.255
CF:172.68.230.0-172.68.230.255
CF:172.68.231.0-172.68.231.255
CF:172.68.232.0-172.68.235.255
CF:172.68.236.0-172.68.239.255
CF:172.68.240.0-172.68.243.255
CF:172.68.244.0-172.68.247.255
CF:172.68.248.0-172.68.255.255
CF:172.69.0.0-172.69.1.255
CF:172.69.2.0-172.69.2.255
CF:172.69.3.0-172.69.3.255
CF:172.69.4.0-172.69.7.255
CF:172.69.8.0-172.69.11.255
CF:172.69.12.0-172.69.12.255
CF:172.69.13.0-172.69.13.255
CF:172.69.14.0-172.69.14.255
CF:172.69.15.0-172.69.15.255
CF:172.69.16.0-172.69.16.255
CF:172.69.18.0-172.69.18.255
CF:172.69.19.0-172.69.19.255
CF:172.69.20.0-172.69.23.255
CF:172.69.24.0-172.69.31.255
CF:172.69.32.0-172.69.35.255
CF:172.69.36.0-172.69.37.255
CF:172.69.38.0-172.69.39.255
CF:172.69.40.0-172.69.43.255
CF:172.69.44.0-172.69.44.255
CF:172.69.45.0-172.69.45.255
CF:172.69.46.0-172.69.46.255
CF:172.69.47.0-172.69.47.255
CF:172.69.48.0-172.69.48.255
CF:172.69.52.0-172.69.55.255
CF:172.69.56.0-172.69.59.255
CF:172.69.60.0-172.69.63.255
CF:172.69.64.0-172.69.71.255
CF:172.69.72.0-172.69.75.255
CF:172.69.76.0-172.69.77.255
CF:172.69.78.0-172.69.78.255
CF:172.69.79.0-172.69.79.255
CF:172.69.80.0-172.69.83.255
CF:172.69.84.0-172.69.87.255
CF:172.69.88.0-172.69.91.255
CF:172.69.92.0-172.69.95.255
CF:172.69.96.0-172.69.99.255
CF:172.69.100.0-172.69.100.255
CF:172.69.101.0-172.69.101.255
CF:172.69.102.0-172.69.102.255
CF:172.69.103.0-172.69.103.255
CF:172.69.108.0-172.69.109.255
CF:172.69.110.0-172.69.110.255
CF:172.69.111.0-172.69.111.255
CF:172.69.112.0-172.69.115.255
CF:172.69.116.0-172.69.119.255
CF:172.69.124.0-172.69.127.255
CF:172.69.128.0-172.69.131.255
CF:172.69.132.0-172.69.135.255
CF:172.69.136.0-172.69.139.255
CF:172.69.140.0-172.69.143.255
CF:172.69.144.0-172.69.147.255
CF:172.69.148.0-172.69.151.255
CF:172.69.156.0-172.69.156.255
CF:172.69.157.0-172.69.157.255
CF:172.69.158.0-172.69.158.255
CF:172.69.159.0-172.69.159.255
CF:172.69.160.0-172.69.160.255
CF:172.69.161.0-172.69.161.255
CF:172.69.162.0-172.69.162.255
CF:172.69.163.0-172.69.163.255
CF:172.69.164.0-172.69.167.255
CF:172.69.168.0-172.69.171.255
CF:172.69.172.0-172.69.175.255
CF:172.69.176.0-172.69.179.255
CF:172.69.180.0-172.69.180.255
CF:172.69.181.0-172.69.181.255
CF:172.69.182.0-172.69.182.255
CF:172.69.183.0-172.69.183.255
CF:172.69.184.0-172.69.187.255
CF:172.69.188.0-172.69.191.255
CF:172.69.192.0-172.69.195.255
CF:172.69.196.0-172.69.196.255
CF:172.69.197.0-172.69.197.255
CF:172.69.198.0-172.69.198.255
CF:172.69.199.0-172.69.199.255
CF:172.69.200.0-172.69.203.255
CF:172.69.204.0-172.69.207.255
CF:172.69.208.0-172.69.208.255
CF:172.69.209.0-172.69.209.255
CF:172.69.210.0-172.69.210.255
CF:172.69.211.0-172.69.211.255
CF:172.69.212.0-172.69.215.255
CF:172.69.216.0-172.69.216.255
CF:172.69.217.0-172.69.217.255
CF:172.69.218.0-172.69.218.255
CF:172.69.219.0-172.69.219.255
CF:172.69.220.0-172.69.223.255
CF:172.69.224.0-172.69.225.255
CF:172.69.226.0-172.69.226.255
CF:172.69.227.0-172.69.227.255
CF:172.69.228.0-172.69.231.255
CF:172.69.232.0-172.69.233.255
CF:172.69.234.0-172.69.234.255
CF:172.69.235.0-172.69.235.255
CF:172.69.236.0-172.69.236.255
CF:172.69.237.0-172.69.237.255
CF:172.69.238.0-172.69.238.255
CF:172.69.239.0-172.69.239.255
CF:172.69.240.0-172.69.243.255
CF:172.69.244.0-172.69.245.255
CF:172.69.246.0-172.69.247.255
CF:172.69.248.0-172.69.248.255
CF:172.69.252.0-172.69.252.255
CF:172.69.253.0-172.69.253.255
CF:172.69.254.0-172.69.254.255
CF:172.69.255.0-172.69.255.255
CF:172.70.0.0-172.70.31.255
CF:172.70.32.0-172.70.32.255
CF:172.70.33.0-172.70.33.255
CF:172.70.34.0-172.70.34.255
CF:172.70.35.0-172.70.35.255
CF:172.70.36.0-172.70.36.255
CF:172.70.37.0-172.70.37.255
CF:172.70.38.0-172.70.38.255
CF:172.70.39.0-172.70.39.255
CF:172.70.40.0-172.70.40.255
CF:172.70.41.0-172.70.41.255
CF:172.70.42.0-172.70.42.255
CF:172.70.43.0-172.70.43.255
CF:172.70.44.0-172.70.44.255
CF:172.70.45.0-172.70.45.255
CF:172.70.48.0-172.70.48.255
CF:172.70.49.0-172.70.49.255
CF:172.70.50.0-172.70.50.255
CF:172.70.51.0-172.70.51.255
CF:172.70.52.0-172.70.52.255
CF:172.70.53.0-172.70.53.255
CF:172.70.54.0-172.70.54.255
CF:172.70.55.0-172.70.55.255
CF:172.70.56.0-172.70.56.255
CF:172.70.57.0-172.70.57.255
CF:172.70.58.0-172.70.58.255
CF:172.70.59.0-172.70.59.255
CF:172.70.60.0-172.70.60.255
CF:172.70.61.0-172.70.61.255
CF:172.70.64.0-172.70.71.255
CF:172.70.72.0-172.70.79.255
CF:172.70.80.0-172.70.80.255
CF:172.70.81.0-172.70.81.255
CF:172.70.82.0-172.70.82.255
CF:172.70.83.0-172.70.83.255
CF:172.70.84.0-172.70.84.255
CF:172.70.85.0-172.70.85.255
CF:172.70.86.0-172.70.86.255
CF:172.70.87.0-172.70.87.255
CF:172.70.88.0-172.70.88.255
CF:172.70.89.0-172.70.89.255
CF:172.70.90.0-172.70.90.255
CF:172.70.91.0-172.70.91.255
CF:172.70.92.0-172.70.92.255
CF:172.70.94.0-172.70.94.255
CF:172.70.95.0-172.70.95.255
CF:172.70.96.0-172.70.99.255
CF:172.70.100.0-172.70.100.255
CF:172.70.101.0-172.70.101.255
CF:172.70.102.0-172.70.102.255
CF:172.70.103.0-172.70.103.255
CF:172.70.104.0-172.70.104.255
CF:172.70.105.0-172.70.105.255
CF:172.70.106.0-172.70.106.255
CF:172.70.107.0-172.70.107.255
CF:172.70.108.0-172.70.108.255
CF:172.70.109.0-172.70.109.255
CF:172.70.110.0-172.70.110.255
CF:172.70.111.0-172.70.111.255
CF:172.70.112.0-172.70.112.255
CF:172.70.113.0-172.70.113.255
CF:172.70.114.0-172.70.114.255
CF:172.70.115.0-172.70.115.255
CF:172.70.116.0-172.70.116.255
CF:172.70.117.0-172.70.117.255
CF:172.70.120.0-172.70.120.255
CF:172.70.121.0-172.70.121.255
CF:172.70.122.0-172.70.122.255
CF:172.70.123.0-172.70.123.255
CF:172.70.124.0-172.70.124.255
CF:172.70.125.0-172.70.125.255
CF:172.70.126.0-172.70.126.255
CF:172.70.127.0-172.70.127.255
CF:172.70.128.0-172.70.128.255
CF:172.70.129.0-172.70.129.255
CF:172.70.130.0-172.70.130.255
CF:172.70.131.0-172.70.131.255
CF:172.70.132.0-172.70.132.255
CF:172.70.133.0-172.70.133.255
CF:172.70.134.0-172.70.134.255
CF:172.70.135.0-172.70.135.255
CF:172.70.136.0-172.70.136.255
CF:172.70.138.0-172.70.138.255
CF:172.70.139.0-172.70.139.255
CF:172.70.140.0-172.70.140.255
CF:172.70.141.0-172.70.141.255
CF:172.70.142.0-172.70.142.255
CF:172.70.143.0-172.70.143.255
CF:172.70.144.0-172.70.144.255
CF:172.70.145.0-172.70.145.255
CF:172.70.146.0-172.70.146.255
CF:172.70.147.0-172.70.147.255
CF:172.70.148.0-172.70.148.255
CF:172.70.149.0-172.70.149.255
CF:172.70.150.0-172.70.150.255
CF:172.70.151.0-172.70.151.255
CF:172.70.152.0-172.70.152.255
CF:172.70.153.0-172.70.153.255
CF:172.70.154.0-172.70.154.255
CF:172.70.155.0-172.70.155.255
CF:172.70.158.0-172.70.158.255
CF:172.70.159.0-172.70.159.255
CF:172.70.160.0-172.70.160.255
CF:172.70.161.0-172.70.161.255
CF:172.70.162.0-172.70.162.255
CF:172.70.163.0-172.70.163.255
CF:172.70.172.0-172.70.172.255
CF:172.70.173.0-172.70.173.255
CF:172.70.174.0-172.70.174.255
CF:172.70.175.0-172.70.175.255
CF:172.70.176.0-172.70.176.255
CF:172.70.177.0-172.70.177.255
CF:172.70.178.0-172.70.178.255
CF:172.70.179.0-172.70.179.255
CF:172.70.180.0-172.70.180.255
CF:172.70.181.0-172.70.181.255
CF:172.70.182.0-172.70.182.255
CF:172.70.183.0-172.70.183.255
CF:172.70.186.0-172.70.186.255
CF:172.70.188.0-172.70.188.255
CF:172.70.189.0-172.70.189.255
CF:172.70.190.0-172.70.190.255
CF:172.70.191.0-172.70.191.255
CF:172.70.192.0-172.70.192.255
CF:172.70.193.0-172.70.193.255
CF:172.70.194.0-172.70.194.255
CF:172.70.200.0-172.70.200.255
CF:172.70.201.0-172.70.201.255
CF:172.70.204.0-172.70.204.255
CF:172.70.205.0-172.70.205.255
CF:172.70.206.0-172.70.206.255
CF:172.70.207.0-172.70.207.255
CF:172.70.208.0-172.70.208.255
CF:172.70.209.0-172.70.209.255
CF:172.70.210.0-172.70.210.255
CF:172.70.211.0-172.70.211.255
CF:172.70.212.0-172.70.212.255
CF:172.70.213.0-172.70.213.255
CF:172.70.214.0-172.70.214.255
CF:172.70.215.0-172.70.215.255
CF:172.70.216.0-172.70.216.255
CF:172.70.217.0-172.70.217.255
CF:172.70.218.0-172.70.218.255
CF:172.70.219.0-172.70.219.255
CF:172.70.220.0-172.70.220.255
CF:172.70.221.0-172.70.221.255
CF:172.70.222.0-172.70.222.255
CF:172.70.223.0-172.70.223.255
CF:172.70.224.0-172.70.224.255
CF:172.70.227.0-172.70.227.255
CF:172.70.228.0-172.70.228.255
CF:172.70.229.0-172.70.229.255
CF:172.70.230.0-172.70.230.255
CF:172.70.231.0-172.70.231.255
CF:172.70.232.0-172.70.232.255
CF:172.70.233.0-172.70.233.255
CF:172.70.234.0-172.70.234.255
CF:172.70.235.0-172.70.235.255
CF:172.70.236.0-172.70.236.255
CF:172.70.238.0-172.70.238.255
CF:172.70.252.0-172.70.252.255
CF:172.70.253.0-172.70.253.255
CF:172.70.254.0-172.70.254.255
CF:172.70.255.0-172.70.255.255
CF:173.245.48.0-173.245.63.255
CF:173.245.49.0-173.245.49.255
CF:173.245.52.0-173.245.52.255
CF:173.245.54.0-173.245.54.255
CF:173.245.58.0-173.245.58.255
CF:173.245.59.0-173.245.59.255
CF:173.245.60.0-173.245.61.255
CF:173.245.63.0-173.245.63.255
CF:174.136.134.0-174.136.134.255
CF:176.126.206.0-176.126.207.255
CF:185.72.49.0-185.72.49.255
CF:185.109.21.0-185.109.21.255
CF:185.122.0.0-185.122.0.255
CF:185.146.172.0-185.146.172.255
CF:185.162.228.0-185.162.229.255
CF:185.162.230.0-185.162.231.255
CF:185.170.166.0-185.170.166.255
CF:185.171.230.0-185.171.231.255
CF:185.174.138.0-185.174.138.255
CF:185.176.26.0-185.176.26.255
CF:185.193.28.0-185.193.29.255
CF:185.193.30.0-185.193.31.255
CF:185.200.190.0-185.200.190.255
CF:185.201.139.0-185.201.139.255
CF:185.207.92.0-185.207.92.255
CF:185.212.144.0-185.212.144.255
CF:185.213.240.0-185.213.240.255
CF:185.221.160.0-185.221.160.255
CF:185.221.161.0-185.221.161.255
CF:185.223.154.0-185.223.154.255
CF:185.235.180.0-185.235.183.255
CF:185.238.228.0-185.238.228.255
CF:188.114.96.0-188.114.111.255
CF:188.114.97.0-188.114.97.255
CF:188.114.100.0-188.114.100.255
CF:188.114.101.0-188.114.101.255
CF:188.114.102.0-188.114.102.255
CF:188.114.103.0-188.114.103.255
CF:188.114.104.0-188.114.104.255
CF:188.114.106.0-188.114.107.255
CF:188.114.108.0-188.114.108.255
CF:188.114.109.0-188.114.109.255
CF:188.114.110.0-188.114.110.255
CF:188.114.111.0-188.114.111.255
CF:190.93.240.0-190.93.255.255
CF:190.93.244.0-190.93.247.255
CF:191.101.251.0-191.101.251.255
CF:193.16.63.0-193.16.63.255
CF:193.67.144.0-193.67.144.255
CF:193.188.14.0-193.188.14.255
CF:194.1.194.0-194.1.194.255
CF:194.36.49.0-194.36.49.255
CF:194.36.55.0-194.36.55.255
CF:194.36.216.0-194.36.216.255
CF:194.36.217.0-194.36.217.255
CF:194.36.218.0-194.36.218.255
CF:194.36.219.0-194.36.219.255
CF:194.40.240.0-194.40.240.255
CF:194.40.241.0-194.40.241.255
CF:194.53.53.0-194.53.53.255
CF:194.53.55.0-194.53.55.255
CF:194.87.58.0-194.87.59.255
CF:194.152.44.0-194.152.44.255
CF:194.169.194.0-194.169.194.255
CF:195.85.23.0-195.85.23.255
CF:195.85.59.0-195.85.59.255
CF:195.85.88.0-195.85.88.255
CF:195.88.213.0-195.88.213.255
CF:195.137.167.0-195.137.167.255
CF:195.242.122.0-195.242.123.255
CF:195.245.221.0-195.245.221.255
CF:196.13.241.0-196.13.241.255
CF:196.207.45.0-196.207.45.255
CF:197.234.240.0-197.234.243.255
CF:197.234.241.0-197.234.241.255
CF:197.234.242.0-197.234.242.255
CF:198.41.128.0-198.41.255.255
CF:198.41.129.0-198.41.129.255
CF:198.41.130.0-198.41.130.255
CF:198.41.132.0-198.41.135.255
CF:198.41.136.0-198.41.139.255
CF:198.41.144.0-198.41.147.255
CF:198.41.148.0-198.41.151.255
CF:198.41.152.0-198.41.155.255
CF:198.41.192.0-198.41.199.255
CF:198.41.200.0-198.41.207.255
CF:198.41.208.0-198.41.209.255
CF:198.41.211.0-198.41.211.255
CF:198.41.212.0-198.41.212.255
CF:198.41.214.0-198.41.215.255
CF:198.41.216.0-198.41.216.255
CF:198.41.217.0-198.41.217.255
CF:198.41.218.0-198.41.218.255
CF:198.41.219.0-198.41.219.255
CF:198.41.220.0-198.41.221.255
CF:198.41.222.0-198.41.222.255
CF:198.41.223.0-198.41.223.255
CF:198.41.224.0-198.41.227.255
CF:198.41.228.0-198.41.231.255
CF:198.41.232.0-198.41.233.255
CF:198.41.234.0-198.41.234.255
CF:198.41.235.0-198.41.235.255
CF:198.41.236.0-198.41.239.255
CF:198.41.240.0-198.41.240.255
CF:198.41.241.0-198.41.241.255
CF:198.41.242.0-198.41.242.255
CF:198.41.243.0-198.41.243.255
CF:198.41.244.0-198.41.244.255
CF:198.41.245.0-198.41.245.255
CF:198.41.246.0-198.41.247.255
CF:198.41.248.0-198.41.249.255
CF:198.41.250.0-198.41.250.255
CF:198.41.251.0-198.41.251.255
CF:198.41.252.0-198.41.252.255
CF:198.41.253.0-198.41.253.255
CF:198.41.254.0-198.41.254.255
CF:198.41.255.0-198.41.255.255
CF:198.217.251.0-198.217.251.255
CF:199.27.132.0-199.27.132.255
CF:199.60.103.0-199.60.103.255
CF:199.181.197.0-199.181.197.255
CF:202.45.130.0-202.45.130.255
CF:203.13.32.0-203.13.32.255
CF:203.17.126.0-203.17.126.255
CF:203.22.223.0-203.22.223.255
CF:203.23.103.0-203.23.103.255
CF:203.23.104.0-203.23.104.255
CF:203.23.106.0-203.23.106.255
CF:203.24.102.0-203.24.102.255
CF:203.24.103.0-203.24.103.255
CF:203.24.108.0-203.24.108.255
CF:203.24.109.0-203.24.109.255
CF:203.28.8.0-203.28.8.255
CF:203.28.9.0-203.28.9.255
CF:203.29.52.0-203.29.52.255
CF:203.29.53.0-203.29.53.255
CF:203.29.54.0-203.29.55.255
CF:203.30.188.0-203.30.191.255
CF:203.32.120.0-203.32.121.255
CF:203.34.28.0-203.34.28.255
CF:203.34.80.0-203.34.80.255
CF:203.55.107.0-203.55.107.255
CF:203.107.173.0-203.107.173.255
CF:203.193.21.0-203.193.21.255
CF:204.62.141.0-204.62.141.255
CF:204.68.111.0-204.68.111.255
CF:206.196.23.0-206.196.23.255
CF:207.189.149.0-207.189.149.255
CF:208.100.60.0-208.100.60.255
CF:212.110.134.0-212.110.135.255
CF:216.24.57.0-216.24.57.255
